{
    "TrkAnaEF" : {
        "enabled" : true,
        "TestType"  : "EFTrigger",
        "RefType"   : "Truth", 
        "TrigTrkKey": "xAODFPGAProtoTracksTrackParticles",
        "MatchingType"  : "TruthMatch" 
    }
}
